{
  "project_info": {
    "project_number": "941114322547",
    "firebase_url": "https://ifmproject-32b1b.firebaseio.com",
    "project_id": "ifmproject-32b1b",
    "storage_bucket": "ifmproject-32b1b.appspot.com"
  },
  "client": [
    {
      "client_info": {
        "mobilesdk_app_id": "1:941114322547:android:e57ee9369b6b1e81358406",
        "android_client_info": {
          "package_name": "com.example.navbartest"
        }
      },
      "oauth_client": [
        {
          "client_id": "941114322547-cn387a0iitig3u08ebv08t4lfffjn9po.apps.googleusercontent.com",
          "client_type": 3
        }
      ],
      "api_key": [
        {
          "current_key": "AIzaSyAid5FL_Zto-oE6oapt5TFvGgq9Mxl0JpM"
        }
      ],
      "services": {
        "appinvite_service": {
          "other_platform_oauth_client": [
            {
              "client_id": "941114322547-cn387a0iitig3u08ebv08t4lfffjn9po.apps.googleusercontent.com",
              "client_type": 3
            }
          ]
        }
      }
    }
  ],
  "configuration_version": "1"
}